﻿Time t / s,Frequency f / Hz,Path s_A1 / cm,Relative pressure p_B1 / hPa,Volume V / cm^3,FFT V' / cm^3
0,0,3.66043,856,103.590169,273.7358846
0.002,1.953125,3.67614,853,104.034762,313.7765967
0.004,3.90625,3.69185,850,104.479355,110.0953852
0.006,5.859375,3.72327,845,105.368541,43.97166546
0.008,7.8125,3.75469,841,106.257727,4.767498791
0.01,9.765625,3.78611,835,107.146913,5.749687833
0.012,11.71875,3.809675,828,107.8138025,3.388341835
0.014,13.671875,3.86466,821,109.369878,3.717752039
0.016,15.625,3.903935,812,110.4813605,3.045942208
0.018,17.578125,3.935355,803,111.3705465,2.852227321
0.02,19.53125,3.99034,794,112.926622,2.469575981
0.022,21.484375,4.02176,783,113.815808,2.352662349
0.024,23.4375,4.0846,773,115.59418,2.184687276
0.026,25.390625,4.139585,762,117.1502555,2.053711849
0.028,27.34375,4.202425,749,118.9286275,1.998538074
0.03,29.296875,4.265265,737,120.7069995,1.820222528
0.032,31.25,4.32025,723,122.263075,1.803055296
0.034,33.203125,4.38309,709,124.041447,1.626137844
0.036,35.15625,4.438075,695,125.5975225,1.677162626
0.038,37.109375,4.52448,679,128.042784,1.536203392
0.04,39.0625,4.58732,662,129.821156,1.546316078
0.042,41.015625,4.673725,646,132.2664175,1.429688412
0.044,42.96875,4.767985,628,134.9339755,1.407830197
0.046,44.921875,4.82297,610,136.490051,1.316503608
0.048,46.875,4.909375,592,138.9353125,1.262443451
0.05,48.828125,4.99578,575,141.380574,1.190419566
0.052,50.78125,5.082185,556,143.8258355,1.181241161
0.054,52.734375,5.20001,537,147.160283,1.14595439
0.056,54.6875,5.29427,518,149.827841,1.105447382
0.058,56.640625,5.412095,499,153.1622885,1.022950465
0.06,58.59375,5.4985,480,155.60755,0.96066503
0.062,60.546875,5.57705,460,157.830515,0.928993742
0.064,62.5,5.694875,440,161.1649625,0.893237931
0.066,64.453125,5.8127,421,164.49941,0.877096655
0.068,66.40625,5.899105,401,166.9446715,0.765720869
0.07,68.359375,6.00122,381,169.834526,0.745345416
0.072,70.3125,6.1269,360,173.39127,0.705870017
0.074,72.265625,6.229015,338,176.2811245,0.702248121
0.076,74.21875,6.323275,316,178.9486825,0.613934961
0.078,76.171875,6.4411,294,182.28313,0.580035206
0.08,78.125,6.55107,271,185.395281,0.513521126
0.082,80.078125,6.668895,249,188.7297285,0.505574093
0.084,82.03125,6.7553,227,191.17499,0.454542076
0.086,83.984375,6.89669,206,195.176327,0.427860549
0.088,85.9375,6.998805,185,198.0661815,0.427755941
0.09,87.890625,7.10092,164,200.956036,0.346222684
0.092,89.84375,7.17947,144,203.179001,0.36129206
0.094,91.796875,7.281585,125,206.0688555,0.273798658
0.096,93.75,7.39941,106,209.403303,0.324307126
0.098,95.703125,7.49367,88,212.070861,0.24449576
0.1,97.65625,7.580075,71,214.5161225,0.314892283
0.102,99.609375,7.658625,55,216.7390875,0.250283154
0.104,101.5625,7.721465,39,218.5174595,0.29491067
0.106,103.515625,7.815725,24,221.1850175,0.217191871
0.108,105.46875,7.90213,11,223.630279,0.274018341
0.11,107.421875,7.94926,0,224.964058,0.259120253
0.112,109.375,8.051375,-12,227.8539125,0.310772527
0.114,111.328125,8.114215,-22,229.6322845,0.293563622
0.116,113.28125,8.1692,-30,231.18836,0.345102272
0.118,115.234375,8.23204,-37,232.966732,0.362871938
0.12,117.1875,8.287025,-43,234.5228075,0.389665269
0.122,119.140625,8.34201,-49,236.078883,0.356302094
0.124,121.09375,8.40485,-54,237.857255,0.352396756
0.126,123.046875,8.428415,-58,238.5241445,0.370002488
0.128,125,8.4834,-61,240.08022,0.417448507
0.13,126.953125,8.51482,-64,240.969406,0.446042885
0.132,128.90625,8.54624,-66,241.858592,0.427833428
0.134,130.859375,8.57766,-69,242.747778,0.44885858
0.136,132.8125,8.601225,-70,243.4146675,0.423633385
0.138,134.765625,8.632645,-71,244.3038535,0.459292849
0.14,136.71875,8.632645,-72,244.3038535,0.472006216
0.142,138.671875,8.664065,-73,245.1930395,0.487456774
0.144,140.625,8.664065,-73,245.1930395,0.503136304
0.146,142.578125,8.664065,-72,245.1930395,0.452000546
0.148,144.53125,8.664065,-72,245.1930395,0.474788377
0.15,146.484375,8.664065,-71,245.1930395,0.446045043
0.152,148.4375,8.664065,-70,245.1930395,0.477925061
0.154,150.390625,8.664065,-69,245.1930395,0.441976874
0.156,152.34375,8.664065,-69,245.1930395,0.468532881
0.158,154.296875,8.6405,-68,244.52615,0.448396371
0.16,156.25,8.60908,-68,243.636964,0.460274487
0.162,158.203125,8.57766,-70,242.747778,0.430960834
0.164,160.15625,8.54624,-71,241.858592,0.428134508
0.166,162.109375,8.522675,-72,241.1917025,0.391297542
0.168,164.0625,8.4834,-72,240.08022,0.371803428
0.17,166.015625,8.428415,-72,238.5241445,0.379279308
0.172,167.96875,8.37343,-71,236.968069,0.370033743
0.174,169.921875,8.34201,-70,236.078883,0.375542751
0.176,171.875,8.287025,-67,234.5228075,0.332496803
0.178,173.828125,8.23204,-64,232.966732,0.329165652
0.18,175.78125,8.1692,-60,231.18836,0.303518576
0.182,177.734375,8.098505,-55,229.1876915,0.278344971
0.184,179.6875,8.019955,-51,226.9647265,0.281694427
0.186,181.640625,7.957115,-46,225.1863545,0.271184519
0.188,183.59375,7.87071,-41,222.741093,0.261701158
0.19,185.546875,7.815725,-36,221.1850175,0.228330536
0.192,187.5,7.72932,-31,218.739756,0.205396538
0.194,189.453125,7.658625,-26,216.7390875,0.201100194
0.196,191.40625,7.55651,-20,213.849233,0.221794645
0.198,193.359375,7.485815,-14,211.8485645,0.19367791
0.2,195.3125,7.3837,-7,208.95871,0.17030692
0.202,197.265625,7.281585,1,206.0688555,0.12909453
0.204,199.21875,7.203035,9,203.8458905,0.158908441
0.206,201.171875,7.108775,17,201.1783325,0.159358572
0.208,203.125,7.02237,27,198.733071,0.159368728
0.21,205.078125,6.904545,37,195.3986235,0.164098489
0.212,207.03125,6.825995,47,193.1756585,0.179474667
0.214,208.984375,6.73959,58,190.730397,0.185415276
0.216,210.9375,6.637475,69,187.8405425,0.20431742
0.218,212.890625,6.55107,81,185.395281,0.209743865
0.22,214.84375,6.40968,93,181.393944,0.230429038
0.222,216.796875,6.284,106,177.8372,0.222312889
0.224,218.75,6.17403,120,174.725049,0.257269141
0.226,220.703125,6.119045,133,173.1689735,0.277501581
0.228,222.65625,6.00122,148,169.834526,0.288191457
0.23,224.609375,5.85983,162,165.833189,0.304682956
0.232,226.5625,5.710585,177,161.6095555,0.291975705
0.234,228.515625,5.616325,193,158.9419975,0.311664247
0.236,230.46875,5.506355,209,155.8298465,0.302589956
0.238,232.421875,5.412095,226,153.1622885,0.348944911
0.24,234.375,5.32569,244,150.717027,0.336339183
0.242,236.328125,5.21572,263,147.604876,0.338079506
0.244,238.28125,5.12146,282,144.937318,0.343990052
0.246,240.234375,5.05862,301,143.158946,0.373531539
0.248,242.1875,4.96436,320,140.491388,0.374226734
0.25,244.140625,4.877955,341,138.0461265,0.349627179
0.252,246.09375,4.79155,361,135.600865,0.372338929
0.254,248.046875,4.705145,382,133.1556035,0.363189545
0.256,250,4.642305,403,131.3772315,0.255703459
0.258,,4.5559,424,128.93197,
0.26,,4.49306,445,127.153598,
0.262,,4.438075,466,125.5975225,
0.264,,4.35167,488,123.152261,
0.266,,4.28883,508,121.373889,
0.268,,4.233845,528,119.8178135,
0.27,,4.171005,549,118.0394415,
0.272,,4.139585,569,117.1502555,
0.274,,4.0846,589,115.59418,
0.276,,4.02176,608,113.815808,
0.278,,3.99034,627,112.926622,
0.28,,3.935355,646,111.3705465,
0.282,,3.903935,663,110.4813605,
0.284,,3.841095,680,108.7029885,
0.286,,3.81753,697,108.036099,
0.288,,3.778255,714,106.9246165,
0.29,,3.762545,729,106.4800235,
0.292,,3.731125,743,105.5908375,
0.294,,3.69185,757,104.479355,
0.296,,3.69185,771,104.479355,
0.298,,3.66043,783,103.590169,
0.3,,3.636865,795,102.9232795,
0.302,,3.636865,805,102.9232795,
0.304,,3.636865,815,102.9232795,
0.306,,3.605445,824,102.0340935,
0.308,,3.605445,832,102.0340935,
0.31,,3.605445,839,102.0340935,
0.312,,3.605445,845,102.0340935,
0.314,,3.605445,850,102.0340935,
0.316,,3.605445,854,102.0340935,
0.318,,3.605445,857,102.0340935,
0.32,,3.605445,859,102.0340935,
0.322,,3.605445,860,102.0340935,
0.324,,3.605445,861,102.0340935,
0.326,,3.636865,860,102.9232795,
0.328,,3.62901,859,102.700983,
0.33,,3.66043,856,103.590169,
0.332,,3.69185,853,104.479355,
0.334,,3.72327,849,105.368541,
0.336,,3.75469,845,106.257727,
0.338,,3.78611,839,107.146913,
0.34,,3.81753,832,108.036099,
0.342,,3.841095,825,108.7029885,
0.344,,3.88037,817,109.814471,
0.346,,3.935355,808,111.3705465,
0.348,,3.966775,799,112.2597325,
0.35,,4.02176,789,113.815808,
0.352,,4.05318,779,114.704994,
0.354,,4.11602,767,116.483366,
0.356,,4.171005,755,118.0394415,
0.358,,4.233845,743,119.8178135,
0.36,,4.28883,729,121.373889,
0.362,,4.35167,715,123.152261,
0.364,,4.406655,701,124.7083365,
0.366,,4.469495,685,126.4867085,
0.368,,4.5559,670,128.93197,
0.37,,4.642305,653,131.3772315,
0.372,,4.705145,636,133.1556035,
0.374,,4.79155,619,135.600865,
0.376,,4.877955,601,138.0461265,
0.378,,4.96436,583,140.491388,
0.38,,5.05862,564,143.158946,
0.382,,5.145025,545,145.6042075,
0.384,,5.26285,526,148.938655,
0.386,,5.349255,506,151.3839165,
0.388,,5.459225,487,154.4960675,
0.39,,5.56134,467,157.385922,
0.392,,5.647745,448,159.8311835,
0.394,,5.73415,428,162.276445,
0.396,,5.867685,408,166.0554855,
0.398,,5.946235,388,168.2784505,
0.4,,6.07977,369,172.057491,
0.402,,6.181885,347,174.9473455,
0.404,,6.307565,324,178.5040895,
0.406,,6.40968,302,181.393944,
0.408,,6.496085,280,183.8392055,
0.41,,6.5982,257,186.72906,
0.412,,6.72388,235,190.285804,
0.414,,6.810285,213,192.7310655,
0.416,,6.951675,191,196.7324025,
0.418,,7.077355,171,200.2891465,
0.42,,7.16376,151,202.734408,
0.422,,7.25802,132,205.401966,
0.424,,7.344425,113,207.8472275,
0.426,,7.422975,95,210.0701925,
0.428,,7.5408,77,213.40464,
0.43,,7.611495,62,215.4053085,
0.432,,7.6979,46,217.85057,
0.434,,7.76074,31,219.628942,
0.436,,7.878565,17,222.9633895,
0.438,,7.93355,5,224.519465,
0.44,,8.004245,-7,226.5201335,
0.442,,8.082795,-17,228.7430985,
0.444,,8.13778,-26,230.299174,
0.446,,8.23204,-33,232.966732,
0.448,,8.287025,-39,234.5228075,
0.45,,8.31059,-45,235.189697,
0.452,,8.365575,-50,236.7457725,
0.454,,8.428415,-55,238.5241445,
0.456,,8.459835,-59,239.4133305,
0.458,,8.49911,-62,240.524813,
0.46,,8.54624,-64,241.858592,
0.462,,8.57766,-67,242.747778,
0.464,,8.601225,-69,243.4146675,
0.466,,8.60908,-70,243.636964,
0.468,,8.6405,-70,244.52615,
0.47,,8.648355,-71,244.7484465,
0.472,,8.664065,-71,245.1930395,
0.474,,8.664065,-71,245.1930395,
0.476,,8.664065,-70,245.1930395,
0.478,,8.664065,-69,245.1930395,
0.48,,8.664065,-68,245.1930395,
0.482,,8.664065,-67,245.1930395,
0.484,,8.664065,-66,245.1930395,
0.486,,8.6405,-65,244.52615,
0.488,,8.60908,-65,243.636964,
0.49,,8.57766,-65,242.747778,
0.492,,8.554095,-66,242.0808885,
0.494,,8.51482,-68,240.969406,
0.496,,8.491255,-68,240.3025165,
0.498,,8.459835,-68,239.4133305,
0.5,,8.40485,-68,237.857255,